
----------------------------------------

Updated 2021-01-01 00:00 UTC by foo:
- Foo FAQ: https://faq.url/here
- Slack #foo: https://slack.com/archives/foo
- Source: https://source.code/foo.py
- Documentation: https://docs.here/README.foo.md
- Report an issue: https://new.issue/new?issue%5Btitle%5D=foo%20issue
